<Qucs Schematic 0.0.20>
<Properties>
  <View=82,-340,4960,1737,0.843956,0,80>
  <Grid=10,10,1>
  <DataSet=spwm.dat>
  <DataDisplay=spwm.dpl>
  <OpenDisplay=1>
  <Script=spwm.m>
  <RunScript=0>
  <showFrame=0>
  <FrameText0=Title>
  <FrameText1=Drawn By:>
  <FrameText2=Date:>
  <FrameText3=Revision:>
</Properties>
<Symbol>
</Symbol>
<Components>
  <GND *4 5 650 560 0 0 0 0>
  <GND *6 5 760 280 0 0 0 0>
  <VProbe Pr4 1 750 260 28 -31 0 0>
  <GND *7 5 670 280 0 0 0 0>
  <VProbe Pr5 1 660 260 28 -31 0 0>
  <Vdc V1 1 650 460 18 -26 0 1 "0.5V" 1>
  <Vdc V2 1 670 800 18 -26 0 1 "0.5V" 1>
  <Vac V3 1 650 520 18 -26 0 1 "0.5V" 1 "f_sine" 0 "0" 0 "0" 0>
  <Vac V4 1 670 870 18 -26 0 1 "0.5V" 1 "f_sine" 0 "180" 0 "0" 0>
  <.TR TR1 1 490 -40 0 91 0 0 "lin" 1 "0" 1 "0.03s" 1 "5000" 1 "Trapezoidal" 0 "2" 0 "1 ns" 0 "1e-16" 0 "150" 0 "0.001" 0 "1 pA" 0 "1 uV" 0 "26.85" 0 "1e-3" 0 "1e-6" 0 "1" 0 "CroutLU" 0 "no" 0 "yes" 0 "0" 0>
  <GND *12 5 610 900 0 0 0 0>
  <GND *3 5 670 900 0 0 0 0>
  <Vrect V5 1 610 820 -106 -26 1 1 "1 V" 1 "T_pulse" 1 "T_pulse" 1 "tr" 0 "tr" 0 "0 ns" 0>
  <GND *2 5 1280 710 0 0 0 0>
  <VProbe Pr2 1 1270 690 28 -31 0 0>
  <GND *23 5 1280 370 0 0 0 0>
  <VProbe Pr10 1 1270 350 28 -31 0 0>
  <OpAmp OP2 1 810 410 -26 42 0 0 "1e6" 1 "1" 0>
  <Buf Y6 1 900 410 -26 27 0 0 "1" 0 "0" 0 "10" 0 "old" 0>
  <OpAmp OP1 1 810 750 -26 42 0 0 "1e6" 1 "1" 0>
  <Buf Y4 1 900 750 -26 27 0 0 "1" 0 "0" 0 "10" 0 "old" 0>
  <OR Y9 1 1550 400 -26 27 0 0 "2" 0 "1 V" 0 "0" 0 "10" 0 "old" 0>
  <OR Y10 1 1550 580 -26 27 0 0 "2" 0 "1 V" 0 "0" 0 "10" 0 "old" 0>
  <Inv Y11 1 1480 490 -47 -26 0 3 "1 V" 0 "0" 0 "10" 0 "old" 0>
  <GND *21 5 1820 360 0 0 0 0>
  <VProbe Pr8 1 1730 340 28 -31 0 0>
  <VProbe Pr9 1 1810 340 28 -31 0 0>
  <GND *22 5 1740 360 0 0 0 0>
  <logic_0 S8 1 1390 390 -35 18 0 0 "0" 0>
  <Eqn Frequency1 1 690 40 -31 19 0 0 "tr=T_pulse*0.85" 1 "f_pulse=15000" 1 "f_sine=80" 1 "T_pulse=1/f_pulse" 1 "yes" 0>
</Components>
<Wires>
  <670 830 670 840 "" 0 0 0 "">
  <670 770 780 770 "" 0 0 0 "">
  <740 280 740 430 "" 0 0 0 "">
  <650 280 650 390 "" 0 0 0 "">
  <650 430 740 430 "" 0 0 0 "">
  <650 550 650 560 "" 0 0 0 "">
  <610 390 650 390 "" 0 0 0 "">
  <610 390 610 730 "" 0 0 0 "">
  <610 730 780 730 "" 0 0 0 "">
  <610 850 610 900 "" 0 0 0 "">
  <610 730 610 790 "" 0 0 0 "">
  <850 750 870 750 "" 0 0 0 "">
  <930 750 1260 750 "" 0 0 0 "">
  <1260 710 1260 750 "" 0 0 0 "">
  <1260 370 1260 410 "" 0 0 0 "">
  <650 390 780 390 "" 0 0 0 "">
  <740 430 780 430 "" 0 0 0 "">
  <850 410 870 410 "" 0 0 0 "">
  <930 410 1260 410 "" 0 0 0 "">
  <1430 410 1520 410 "" 0 0 0 "">
  <1430 590 1520 590 "" 0 0 0 "">
  <1480 570 1520 570 "" 0 0 0 "">
  <1480 520 1480 570 "" 0 0 0 "">
  <1480 390 1520 390 "" 0 0 0 "">
  <1480 390 1480 460 "" 0 0 0 "">
  <1720 360 1720 400 "" 0 0 0 "">
  <1580 580 1800 580 "" 0 0 0 "">
  <1580 400 1720 400 "" 0 0 0 "">
  <1430 410 1430 590 "" 0 0 0 "">
  <1800 360 1800 580 "" 0 0 0 "">
  <1390 390 1480 390 "" 0 0 0 "">
  <1260 410 1260 590 "" 0 0 0 "">
  <1260 590 1430 590 "" 0 0 0 "">
</Wires>
<Diagrams>
</Diagrams>
<Paintings>
  <Rectangle 470 310 570 640 #00aa00 2 2 #c0c0c0 1 0>
  <Text 950 910 22 #aa0000 0 "MCU">
  <Rectangle 1410 310 190 320 #00aa00 2 2 #c0c0c0 1 0>
  <Text 1460 330 22 #aa0000 0 "DEMUX">
</Paintings>
