<Qucs Schematic 0.0.20>
<Properties>
  <View=-147,-385,2853,1265,1.35132,629,409>
  <Grid=10,10,1>
  <DataSet=spwm-filter.dat>
  <DataDisplay=spwm-filter.dpl>
  <OpenDisplay=1>
  <Script=spwm-filter.m>
  <RunScript=0>
  <showFrame=0>
  <FrameText0=Title>
  <FrameText1=Drawn By:>
  <FrameText2=Date:>
  <FrameText3=Revision:>
</Properties>
<Symbol>
</Symbol>
<Components>
  <Vdc V3 1 180 580 18 -26 0 1 "v_offset" 1>
  <GND *14 5 180 690 0 0 0 0>
  <GND * 5 140 690 0 0 0 0>
  <.TR TR2 1 1260 -10 0 91 0 0 "lin" 1 "0" 1 "0.03s" 1 "5000" 1 "Trapezoidal" 0 "2" 0 "1 ns" 0 "1e-16" 0 "150" 0 "0.001" 0 "1 pA" 0 "1 uV" 0 "26.85" 0 "1e-3" 0 "1e-6" 0 "1" 0 "CroutLU" 0 "no" 0 "yes" 0 "0" 0>
  <Eqn FFT 1 1480 350 -31 19 0 0 "ft_load=dB(Time2Freq(v_load.Vt, time))" 1 "ft_out=dB(Time2Freq(v_out.Vt, time))" 1 "yes" 0>
  <Vrect V7 1 140 620 -106 -26 1 1 "v_pulse" 1 "T_pulse" 1 "T_pulse" 1 "tr" 0 "tr" 0 "0 ns" 0>
  <Vdc V1 1 170 70 18 -26 0 1 "v_offset" 1>
  <VProbe Pr2 1 250 -90 28 -31 0 0>
  <GND * 5 260 -70 0 0 0 0>
  <Vac V6 1 170 140 18 -26 0 1 "v_sine" 1 "f_sine" 0 "0" 0 "0" 0>
  <GND *3 5 170 200 0 0 0 0>
  <Buf Y6 1 410 20 -26 27 0 0 "v_opamp" 0 "0" 0 "10" 0 "old" 0>
  <L L3 1 600 490 10 -26 0 1 "L_filt" 1 "" 0>
  <VProbe v_out2 1 590 580 28 -31 0 0>
  <GND *16 5 600 600 0 0 0 0>
  <C C1 1 600 210 -83 -26 1 1 "C_sim" 1 "" 0 "neutral" 0>
  <C C2 1 600 360 -83 -26 1 1 "C_sim" 1 "" 0 "neutral" 0>
  <IProbe i_load 1 550 20 -26 16 0 0>
  <Buf Y2 1 410 530 -26 27 0 0 "v_opamp" 0 "0" 0 "10" 0 "old" 0>
  <Vac V5 1 180 650 18 -26 0 1 "v_sine" 1 "f_sine" 0 "180" 0 "0" 0>
  <OpAmp OP1 1 300 20 -26 42 0 0 "1e6" 1 "v_opamp" 0>
  <OpAmp OP2 1 310 530 -26 42 0 0 "1e6" 1 "v_opamp" 0>
  <VProbe Pr1 1 160 -90 28 -31 0 0>
  <GND * 5 170 -70 0 0 0 0>
  <VProbe v_out1 1 490 -90 28 -31 0 0>
  <GND * 5 500 -70 0 0 0 0>
  <VProbe v_out 1 800 -10 28 -31 0 0>
  <VProbe Pr3 1 190 450 28 -31 0 0>
  <GND * 5 200 470 0 0 0 0>
  <C C4 0 480 210 -83 -26 1 1 "C_sim" 1 "" 0 "neutral" 0>
  <C C5 0 480 360 -83 -26 1 1 "C_sim" 1 "" 0 "neutral" 0>
  <Eqn Filter2 1 1480 20 -31 19 0 0 "C_filt=470*1e-9" 1 "L_filt=168*1e-6" 1 "C_sim=C_filt" 1 "yes" 0>
  <GND *15 5 560 290 0 0 0 0>
  <L L2 1 600 60 10 -26 0 1 "L_filt" 1 "" 0>
  <Eqn Frequency1 1 1620 20 -31 19 0 0 "tr=T_pulse*0.85" 1 "f_pulse=30000" 1 "f_sine=80" 1 "T_pulse=1/f_pulse" 1 "yes" 0>
  <Eqn Voltage 1 1480 180 -31 19 0 0 "v_sine=0.5" 1 "v_opamp=36" 1 "v_offset=v_sine" 1 "v_pulse=2*v_sine" 1 "yes" 0>
  <R R3 1 680 270 15 -26 1 3 "3.7 Ohm" 1 "26.85" 0 "0.0" 0 "0.0" 0 "26.85" 0 "european" 0>
  <C C6 1 740 230 -26 -55 1 0 "100uF" 1 "" 0 "neutral" 0>
  <R R2 1 740 310 -26 15 1 2 "3.7 Ohm" 1 "26.85" 0 "0.0" 0 "0.0" 0 "26.85" 0 "european" 0>
  <VProbe v_load 1 840 270 -16 28 0 3>
</Components>
<Wires>
  <140 650 140 690 "" 0 0 0 "">
  <140 510 140 590 "" 0 0 0 "">
  <170 40 240 40 "" 0 0 0 "">
  <240 -70 240 40 "" 0 0 0 "">
  <170 100 170 110 "" 0 0 0 "">
  <170 170 170 200 "" 0 0 0 "">
  <140 510 280 510 "" 0 0 0 "">
  <180 550 280 550 "" 0 0 0 "">
  <940 20 940 530 "" 0 0 0 "">
  <530 530 530 650 "" 0 0 0 "">
  <530 650 580 650 "" 0 0 0 "">
  <580 600 580 650 "" 0 0 0 "">
  <530 530 600 530 "" 0 0 0 "">
  <600 530 940 530 "" 0 0 0 "">
  <600 520 600 530 "" 0 0 0 "">
  <440 20 480 20 "" 0 0 0 "">
  <480 20 520 20 "" 0 0 0 "">
  <580 20 600 20 "" 0 0 0 "">
  <600 390 600 430 "" 0 0 0 "">
  <600 240 600 280 "" 0 0 0 "">
  <600 280 600 330 "" 0 0 0 "">
  <560 280 600 280 "" 0 0 0 "">
  <600 430 600 460 "" 0 0 0 "">
  <350 530 380 530 "" 0 0 0 "">
  <440 530 530 530 "" 0 0 0 "">
  <180 680 180 690 "" 0 0 0 "">
  <180 610 180 620 "" 0 0 0 "">
  <340 20 380 20 "" 0 0 0 "">
  <140 0 140 510 "" 0 0 0 "">
  <140 0 150 0 "" 0 0 0 "">
  <240 40 270 40 "" 0 0 0 "">
  <480 -70 480 20 "" 0 0 0 "">
  <810 20 940 20 "" 0 0 0 "">
  <810 10 810 20 "" 0 0 0 "">
  <600 20 790 20 "" 0 0 0 "">
  <790 10 790 20 "" 0 0 0 "">
  <150 0 270 0 "" 0 0 0 "">
  <150 -70 150 0 "" 0 0 0 "">
  <180 470 180 550 "" 0 0 0 "">
  <600 140 600 180 "" 0 0 0 "">
  <480 140 480 180 "" 0 0 0 "">
  <480 140 600 140 "" 0 0 0 "">
  <480 240 480 280 "" 0 0 0 "">
  <480 280 560 280 "" 0 0 0 "">
  <480 280 480 330 "" 0 0 0 "">
  <480 430 600 430 "" 0 0 0 "">
  <480 390 480 430 "" 0 0 0 "">
  <560 280 560 290 "" 0 0 0 "">
  <600 20 600 30 "" 0 0 0 "">
  <600 90 600 140 "" 0 0 0 "">
  <600 430 680 430 "" 0 0 0 "">
  <680 300 680 310 "" 0 0 0 "">
  <680 310 680 430 "" 0 0 0 "">
  <770 230 790 230 "" 0 0 0 "">
  <680 230 680 240 "" 0 0 0 "">
  <680 230 710 230 "" 0 0 0 "">
  <680 310 710 310 "" 0 0 0 "">
  <790 230 790 310 "" 0 0 0 "">
  <770 310 790 310 "" 0 0 0 "">
  <600 140 680 140 "" 0 0 0 "">
  <800 140 800 260 "" 0 0 0 "">
  <800 260 820 260 "" 0 0 0 "">
  <800 280 820 280 "" 0 0 0 "">
  <800 280 800 430 "" 0 0 0 "">
  <680 430 800 430 "" 0 0 0 "">
  <680 140 800 140 "" 0 0 0 "">
  <680 140 680 230 "" 0 0 0 "">
</Wires>
<Diagrams>
  <Rect 20 1090 1791 330 3 #c0c0c0 1 00 0 0 0.0001 0.003 1 -2.39989 5 26.3988 1 -1 0.5 1 315 0 225 "" "" "" "">
	<"Pr1.Vt" #ff5500 2 3 0 0 0>
	<"Pr2.Vt" #ff0000 2 3 0 0 0>
	<"v_out1.Vt" #0000ff 2 3 0 0 0>
	<"v_out2.Vt" #00ff00 2 3 0 0 0>
	<"Pr3.Vt" #00ffff 2 3 0 0 0>
  </Rect>
</Diagrams>
<Paintings>
  <Text 730 450 12 #ff0000 0 "Load">
  <Rectangle 620 130 260 310 #ff0000 2 2 #c0c0c0 1 0>
</Paintings>
